<?xml version="1.0" encoding="UTF-8" standalone="no"?>
<!-- Created with Inkscape (http://www.inkscape.org/) -->

<svg
   xmlns:dc="http://purl.org/dc/elements/1.1/"
   xmlns:cc="http://creativecommons.org/ns#"
   xmlns:rdf="http://www.w3.org/1999/02/22-rdf-syntax-ns#"
   xmlns:svg="http://www.w3.org/2000/svg"
   xmlns="http://www.w3.org/2000/svg"
   xmlns:sodipodi="http://sodipodi.sourceforge.net/DTD/sodipodi-0.dtd"
   xmlns:inkscape="http://www.inkscape.org/namespaces/inkscape"
   width="793.70081"
   height="1122.5197"
   id="svg2"
   sodipodi:version="0.32"
   inkscape:version="0.92.1 r15371"
   sodipodi:docname="addresses.svg"
   version="1.1">
  <defs
     id="defs4" />
  <sodipodi:namedview
     id="base"
     pagecolor="white"
     bordercolor="#666666"
     borderopacity="1.0"
     gridtolerance="10000"
     guidetolerance="10"
     objecttolerance="10"
     inkscape:pageopacity="1"
     inkscape:pageshadow="2"
     inkscape:zoom="0.60056983"
     inkscape:cx="650.40678"
     inkscape:cy="630.31861"
     inkscape:document-units="px"
     inkscape:current-layer="layer1"
     inkscape:window-width="849"
     inkscape:window-height="579"
     inkscape:window-x="0"
     inkscape:window-y="31"
     showgrid="false" />
  <metadata
     id="metadata7">
    <rdf:RDF>
      <cc:Work
         rdf:about="">
        <dc:format>image/svg+xml</dc:format>
        <dc:type
           rdf:resource="http://purl.org/dc/dcmitype/StillImage" />
      </cc:Work>
    </rdf:RDF>
  </metadata>
  <g
     inkscape:label="Layer 1"
     inkscape:groupmode="layer"
     id="layer1">
    <text
       xml:space="preserve"
       style="font-style:normal;font-weight:normal;font-size:9.3703928px;line-height:0%;font-family:'Bitstream Vera Sans';fill:#000000;fill-opacity:1;stroke:none;stroke-width:0.78086609px;stroke-linecap:butt;stroke-linejoin:miter;stroke-opacity:1"
       x="198.183"
       y="329.8064"
       id="text1872"
       inkscape:export-filename="./addresses.png"
       inkscape:export-xdpi="104.93852"
       inkscape:export-ydpi="104.93852"><tspan
         sodipodi:role="line"
         id="tspan1874"
         x="198.183"
         y="329.8064"
         style="font-size:9.3703928px;line-height:1.25;stroke-width:0.78086609px">maintainer@msxpertsuite.org</tspan></text>
    <text
       id="text1876"
       y="367.81244"
       x="198.183"
       style="font-style:normal;font-weight:normal;font-size:9.3703928px;line-height:0%;font-family:'Bitstream Vera Sans';fill:#000000;fill-opacity:1;stroke:none;stroke-width:0.78086609px;stroke-linecap:butt;stroke-linejoin:miter;stroke-opacity:1"
       xml:space="preserve"
       inkscape:export-filename="./addresses.png"
       inkscape:export-xdpi="104.93852"
       inkscape:export-ydpi="104.93852"><tspan
         y="367.81244"
         x="198.183"
         id="tspan1878"
         sodipodi:role="line"
         style="font-size:9.3703928px;line-height:1.25;stroke-width:0.78086609px">bugs@msxpertsuite.org</tspan></text>
    <text
       xml:space="preserve"
       style="font-style:normal;font-weight:normal;font-size:9.3703928px;line-height:0%;font-family:'Bitstream Vera Sans';fill:#000000;fill-opacity:1;stroke:none;stroke-width:0.78086609px;stroke-linecap:butt;stroke-linejoin:miter;stroke-opacity:1"
       x="198.64053"
       y="393.14981"
       id="text1880"
       inkscape:export-filename="./addresses.png"
       inkscape:export-xdpi="104.93852"
       inkscape:export-ydpi="104.93852"><tspan
         sodipodi:role="line"
         id="tspan1882"
         x="198.64053"
         y="393.14981"
         style="font-size:9.3703928px;line-height:1.25;stroke-width:0.78086609px">webmaster@msxpertsuite.org</tspan></text>
    <text
       id="text1884"
       y="355.14377"
       x="198.183"
       style="font-style:normal;font-weight:normal;font-size:9.3703928px;line-height:0%;font-family:'Bitstream Vera Sans';fill:#000000;fill-opacity:1;stroke:none;stroke-width:0.78086609px;stroke-linecap:butt;stroke-linejoin:miter;stroke-opacity:1"
       xml:space="preserve"
       inkscape:export-filename="./addresses.png"
       inkscape:export-xdpi="104.93852"
       inkscape:export-ydpi="104.93852"><tspan
         y="355.14377"
         x="198.183"
         id="tspan1886"
         sodipodi:role="line"
         style="font-size:9.3703928px;line-height:1.25;stroke-width:0.78086609px">request@msxpertsuite.org</tspan></text>
    <text
       xml:space="preserve"
       style="font-style:normal;font-weight:normal;font-size:9.3703928px;line-height:0%;font-family:'Bitstream Vera Sans';fill:#000000;fill-opacity:1;stroke:none;stroke-width:0.78086609px;stroke-linecap:butt;stroke-linejoin:miter;stroke-opacity:1"
       x="198.47125"
       y="342.47507"
       id="text1872-3"
       inkscape:export-filename="./addresses.png"
       inkscape:export-xdpi="104.93852"
       inkscape:export-ydpi="104.93852"><tspan
         sodipodi:role="line"
         id="tspan1874-6"
         x="198.47125"
         y="342.47507"
         style="font-size:9.3703928px;line-height:1.25;stroke-width:0.78086609px">announce@msxpertsuite.org</tspan></text>
    <text
       xml:space="preserve"
       style="font-style:normal;font-weight:normal;font-size:9.3703928px;line-height:0%;font-family:'Bitstream Vera Sans';fill:#000000;fill-opacity:1;stroke:none;stroke-width:0.78086609px;stroke-linecap:butt;stroke-linejoin:miter;stroke-opacity:1"
       x="198.517"
       y="380.48114"
       id="text1880-7"
       inkscape:export-filename="./addresses.png"
       inkscape:export-xdpi="104.93852"
       inkscape:export-ydpi="104.93852"><tspan
         sodipodi:role="line"
         id="tspan1882-5"
         x="198.517"
         y="380.48114"
         style="font-size:9.3703928px;line-height:1.25;stroke-width:0.78086609px">git-commits@msxpertsuite.org</tspan></text>
    <text
       xml:space="preserve"
       style="font-style:normal;font-weight:normal;font-size:29.28247643px;line-height:18.301548px;font-family:'Bitstream Vera Sans';letter-spacing:0px;word-spacing:0px;fill:#000000;fill-opacity:1;stroke:none;stroke-width:0.73206192px;stroke-linecap:butt;stroke-linejoin:miter;stroke-opacity:1"
       x="361.99228"
       y="329.72519"
       id="text4497"
       inkscape:export-filename="./addresses.png"
       inkscape:export-xdpi="104.93852"
       inkscape:export-ydpi="104.93852"><tspan
         sodipodi:role="line"
         id="tspan4495"
         x="361.99228"
         y="329.72519"
         style="font-size:9.76082516px;line-height:0.73206192px;stroke-width:0.73206192px"> = general mailing list about msXpertSuite</tspan></text>
    <text
       id="text4501"
       y="342.39386"
       x="361.99228"
       style="font-style:normal;font-weight:normal;font-size:29.28247643px;line-height:18.301548px;font-family:'Bitstream Vera Sans';letter-spacing:0px;word-spacing:0px;fill:#000000;fill-opacity:1;stroke:none;stroke-width:0.73206192px;stroke-linecap:butt;stroke-linejoin:miter;stroke-opacity:1"
       xml:space="preserve"
       inkscape:export-filename="./addresses.png"
       inkscape:export-xdpi="104.93852"
       inkscape:export-ydpi="104.93852"><tspan
         style="font-size:9.76082516px;line-height:0.73206192px;stroke-width:0.73206192px"
         y="342.39386"
         x="361.99228"
         id="tspan4499"
         sodipodi:role="line"> = announcements to all msXpertSuite users</tspan></text>
    <text
       xml:space="preserve"
       style="font-style:normal;font-weight:normal;font-size:29.28247643px;line-height:18.301548px;font-family:'Bitstream Vera Sans';letter-spacing:0px;word-spacing:0px;fill:#000000;fill-opacity:1;stroke:none;stroke-width:0.73206192px;stroke-linecap:butt;stroke-linejoin:miter;stroke-opacity:1"
       x="361.99228"
       y="355.06256"
       id="text4505"
       inkscape:export-filename="./addresses.png"
       inkscape:export-xdpi="104.93852"
       inkscape:export-ydpi="104.93852"><tspan
         sodipodi:role="line"
         id="tspan4503"
         x="361.99228"
         y="355.06256"
         style="font-size:9.76082516px;line-height:0.73206192px;stroke-width:0.73206192px"> = feature requests for msXpertSuite developers</tspan></text>
    <text
       id="text4509"
       y="367.73123"
       x="361.99228"
       style="font-style:normal;font-weight:normal;font-size:29.28247643px;line-height:18.301548px;font-family:'Bitstream Vera Sans';letter-spacing:0px;word-spacing:0px;fill:#000000;fill-opacity:1;stroke:none;stroke-width:0.73206192px;stroke-linecap:butt;stroke-linejoin:miter;stroke-opacity:1"
       xml:space="preserve"
       inkscape:export-filename="./addresses.png"
       inkscape:export-xdpi="104.93852"
       inkscape:export-ydpi="104.93852"><tspan
         style="font-size:9.76082516px;line-height:0.73206192px;stroke-width:0.73206192px"
         y="367.73123"
         x="361.99228"
         id="tspan4507"
         sodipodi:role="line"> = report bugs found in msXpertSuite software</tspan></text>
    <text
       xml:space="preserve"
       style="font-style:normal;font-weight:normal;font-size:29.28247643px;line-height:18.301548px;font-family:'Bitstream Vera Sans';letter-spacing:0px;word-spacing:0px;fill:#000000;fill-opacity:1;stroke:none;stroke-width:0.73206192px;stroke-linecap:butt;stroke-linejoin:miter;stroke-opacity:1"
       x="361.99228"
       y="380.39993"
       id="text4513"
       inkscape:export-filename="./addresses.png"
       inkscape:export-xdpi="104.93852"
       inkscape:export-ydpi="104.93852"><tspan
         sodipodi:role="line"
         id="tspan4511"
         x="361.99228"
         y="380.39993"
         style="font-size:9.76082516px;line-height:0.73206192px;stroke-width:0.73206192px"> = documents the git activity in msXpertSuite software</tspan></text>
    <text
       id="text4517"
       y="393.0686"
       x="361.99228"
       style="font-style:normal;font-weight:normal;font-size:29.28247643px;line-height:18.301548px;font-family:'Bitstream Vera Sans';letter-spacing:0px;word-spacing:0px;fill:#000000;fill-opacity:1;stroke:none;stroke-width:0.73206192px;stroke-linecap:butt;stroke-linejoin:miter;stroke-opacity:1"
       xml:space="preserve"
       inkscape:export-filename="./addresses.png"
       inkscape:export-xdpi="104.93852"
       inkscape:export-ydpi="104.93852"><tspan
         style="font-size:9.76082516px;line-height:0.73206192px;stroke-width:0.73206192px"
         y="393.0686"
         x="361.99228"
         id="tspan4515"
         sodipodi:role="line"> = about the msxpertsuite.org website</tspan></text>
  </g>
</svg>
