<?xml version="1.0" encoding="UTF-8" standalone="no"?>
<svg
   xmlns:dc="http://purl.org/dc/elements/1.1/"
   xmlns:cc="http://creativecommons.org/ns#"
   xmlns:rdf="http://www.w3.org/1999/02/22-rdf-syntax-ns#"
   xmlns:svg="http://www.w3.org/2000/svg"
   xmlns="http://www.w3.org/2000/svg"
   xmlns:xlink="http://www.w3.org/1999/xlink"
   xmlns:sodipodi="http://sodipodi.sourceforge.net/DTD/sodipodi-0.dtd"
   xmlns:inkscape="http://www.inkscape.org/namespaces/inkscape"
   id="svg2"
   version="1.1"
   width="32.085468"
   height="32.085468"
   viewBox="0 0 32.085468 32.085468"
   sodipodi:docname="lock-y-marker.svg"
   inkscape:version="1.0.2 (e86c870879, 2021-01-15)">
  <sodipodi:namedview
     pagecolor="#ffffff"
     bordercolor="#666666"
     borderopacity="1"
     objecttolerance="10"
     gridtolerance="10"
     guidetolerance="10"
     inkscape:pageopacity="0"
     inkscape:pageshadow="2"
     inkscape:window-width="640"
     inkscape:window-height="480"
     id="namedview64"
     showgrid="false"
     inkscape:zoom="18.852993"
     inkscape:cx="16.716743"
     inkscape:cy="15.080097"
     inkscape:current-layer="svg2"
     inkscape:document-rotation="0" />
  <metadata
     id="metadata8">
    <rdf:RDF>
      <cc:Work
         rdf:about="">
        <dc:format>image/svg+xml</dc:format>
        <dc:type
           rdf:resource="http://purl.org/dc/dcmitype/StillImage" />
        <dc:title />
      </cc:Work>
    </rdf:RDF>
  </metadata>
  <defs
     id="defs6">
    <marker
       style="overflow:visible"
       id="marker7344"
       refX="0"
       refY="0"
       orient="auto">
      <path
         transform="matrix(-0.4,0,0,-0.4,-4,0)"
         style="fill:#ff0000;fill-opacity:1;fill-rule:evenodd;stroke:#ff0000;stroke-width:1pt;stroke-opacity:1"
         d="M 0,0 5,-5 -12.5,0 5,5 Z"
         id="path7346" />
    </marker>
    <marker
       style="overflow:visible"
       id="marker7304"
       refX="0"
       refY="0"
       orient="auto">
      <path
         transform="matrix(0.4,0,0,0.4,4,0)"
         style="fill:#ff0000;fill-opacity:1;fill-rule:evenodd;stroke:#ff0000;stroke-width:1pt;stroke-opacity:1"
         d="M 0,0 5,-5 -12.5,0 5,5 Z"
         id="path7306" />
    </marker>
    <marker
       orient="auto"
       refY="0"
       refX="0"
       id="Arrow1Lend"
       style="overflow:visible">
      <path
         id="path4227"
         d="M 0,0 5,-5 -12.5,0 5,5 Z"
         style="fill:#ff0000;fill-opacity:1;fill-rule:evenodd;stroke:#ff0000;stroke-width:1pt;stroke-opacity:1"
         transform="matrix(-0.8,0,0,-0.8,-10,0)" />
    </marker>
    <marker
       orient="auto"
       refY="0"
       refX="0"
       id="Arrow1Lstart"
       style="overflow:visible">
      <path
         id="path4224"
         d="M 0,0 5,-5 -12.5,0 5,5 Z"
         style="fill:#ff0000;fill-opacity:1;fill-rule:evenodd;stroke:#ff0000;stroke-width:1pt;stroke-opacity:1"
         transform="matrix(0.8,0,0,0.8,10,0)" />
    </marker>
    <marker
       orient="auto"
       refY="0"
       refX="0"
       id="Arrow1Mstart"
       style="overflow:visible">
      <path
         id="path4230"
         d="M 0,0 5,-5 -12.5,0 5,5 Z"
         style="fill:#ff0000;fill-opacity:1;fill-rule:evenodd;stroke:#ff0000;stroke-width:1pt;stroke-opacity:1"
         transform="matrix(0.4,0,0,0.4,4,0)" />
    </marker>
    <marker
       orient="auto"
       refY="0"
       refX="0"
       id="Arrow1Mend"
       style="overflow:visible">
      <path
         id="path4233"
         d="M 0,0 5,-5 -12.5,0 5,5 Z"
         style="fill:#ff0000;fill-opacity:1;fill-rule:evenodd;stroke:#ff0000;stroke-width:1pt;stroke-opacity:1"
         transform="matrix(-0.4,0,0,-0.4,-4,0)" />
    </marker>
    <marker
       style="overflow:visible"
       id="marker7304-3"
       refX="0"
       refY="0"
       orient="auto">
      <path
         transform="matrix(0.4,0,0,0.4,4,0)"
         style="fill:#ff0000;fill-opacity:1;fill-rule:evenodd;stroke:#ff0000;stroke-width:1pt;stroke-opacity:1"
         d="M 0,0 5,-5 -12.5,0 5,5 Z"
         id="path7306-6" />
    </marker>
    <marker
       style="overflow:visible"
       id="marker7344-7"
       refX="0"
       refY="0"
       orient="auto">
      <path
         transform="matrix(-0.4,0,0,-0.4,-4,0)"
         style="fill:#ff0000;fill-opacity:1;fill-rule:evenodd;stroke:#ff0000;stroke-width:1pt;stroke-opacity:1"
         d="M 0,0 5,-5 -12.5,0 5,5 Z"
         id="path7346-5" />
    </marker>
  </defs>
  <image
     width="32"
     height="32"
     preserveAspectRatio="none"
     xlink:href="data:image/png;base64,iVBORw0KGgoAAAANSUhEUgAAACAAAAAgCAYAAABzenr0AAAABHNCSVQICAgIfAhkiAAACERJREFU WIWll1msXVUZx39r7eGcfe6588S9vfSWlpbSlhaKVQTEFGMEEoKYmGAfwDkYgxBMlERfNDHGBx81 +ECMCA8kWoOGBKXQyINiQVKETreF0tty5+kMe1yTD/s0SNDeRnays8/ZWfm+3/p/6xu24DKv7bt3 0HPfbuaiBN8JhpZ9jvzk9wDced89xJ8bZbGWMe73cVfXHr57x9cuy664nEU7r7+O6Ms3cDw9zw47 zHy2wmw9ZUc6RPVkzPKn6kz7DfrzkJWqZrg+wGeCq3nqiz9d17a8HIDorq1MNWd4kJu5pbmBr0ef ZtOFKsfsDMeviTnXnOcRezuPX/UtfjX4AHJVcSR/lxcOv7SubW+9BX1DA2SfHGJzu4f20fO89Pwh wkrIxtoobxXnyWXBx9oTzB0+xqE/v8D2rdvYXB3h70xzYeU9pv545KMpMHrzNhpZi4m8zrl33qVW 62bq5HGKZky16UHDMLgccPKtE4xvGOefrx1hT88kFeXxjl7g8OHDl7TvrweQDoIuFF06YOyKcdqp IWnMl4cnNQgsA/V+rrxyCxvGd+K5JTygz9Zo2TX279//0QDyUKOMptCKrdu3kcQpuI3MtZdQIgdj ybTi3i/cg+9XGR/bRZLFJDrBOLWe+fVDYEOJlY4LySK5UggpKKxmJllFeRonHDPxEtaD3sE61hpm GgssihYtk/LNXzz2/wPcdvdnKXwDwnLaW2YhWyN1iqW8xXuiAdKBFJw1y8wkKzTSmJnmAi+vnqDl tSiMZkU1LwlwyRBEm4fIgiVwguU+xZGFd+lzEU2bUPQL/CDEr1TJuuEfK2eYymZp6FVOXtEArdDO o2mzSwL8z0L01cceIttQ4c1kmtWsiUgNraxNWqTkeVKie0DFw6tUGIgGibwKc1GTalQlJMQ3gqvF EHcO3MgPDnzn8gCe+dNBTmWznMpneTueYT5bIc9ydK5YTtcwWoHTIBx4EkIPQoHn+YxUh+mudFPz KuAJBJKq89gUDLCzOsEP73v40gCPH/wtbxTTvKbOclzNkOkECgeFxWqDUwasLQGw4IkSwhelGp6g N+hhxB9GCIlHCRY5n1FRZ6s/wr76Fg7c+6UPA/zyD0/ySnKGQ/oYs6zhrEMawFgoLM45nHHlYpuD MIAE2XEuRakKjkCEjHlXoFDMm0UiL2LI62eD62ebN8L1lQkeOfDt9wF+ffBpXk5O8Zx+k2XZxkkQ VmCLAlfEpVMZIZyH8CRWp2CLjlPefzoHrgNtQQiBEw68suJHospVYow9bpwbok187/6Hyyw4Fl/g L+lRlis5Uvp4CByOXMVgVZmswkP63SAEyABM0cG3HUBZ/rSlCghw1nbWl+ma2oTT9hwCg2gZALwn fvcULzb/xRt2ijDswhOSEX+AZHURnbdLAwIQEhnUOjACISCQXSAlTlhwpgMkShUughiLLyIcGnBY a2nrlKr2+PzddyCn4wWOxqdwOHCCwqTc2L0d3U5gPoO0AN2hdWB1hmdgk9zIZjnOmBsitN0E1Ilk NxIPYV2pRmFgJSZYU+yp76bqQrCWVCecV4tciFfwZ9MlVvQKwlXwrQPnmC+W0D0+Iq7ippagR0I9 ofDXwFh0oTgbnyhjLQVEPtR8VCVASA+pLTbOcUspvqzRs2uQsdoonmpxon2BzCas6iYN28afz1Yw pgAbEBdrOGH52/wrYAqqw4NkMzHuTAwiK2MJkDtk2yEVuABMt4AuAYHAOTDKQhtEV5WRm3cwn87y ytyrxGqZgApDosZq0aBtY/xcF6At5BnOFYiggrMGrCI1TcSuQTguYLYJawo0VBctwy2PyYktLC8u 8Z5eoT0ssNVOVtd8RG8Ff+8wM9kM2JhVmwAOZXMENaw2aKvwfSvLWFUAJXHWQVBDBBFOt3FRiNjS D2MRLkkgdlz1XIt9MYycXaRdpCxZyQsTFRqTHnT7UI9wNU0Q1VDtBki/PJgqx1lDW+WQWRAWP7I+ pAZCUR4cT4Nu4fygTK2shRvsRlCHbgHWsLpDw19bGNp0WUcsHfFNPTAgwPgIo6kM9VPEKVgDujMX OAvGgTIIJQiFQE5Eo9SyEBJdKqEMaCDPocjK/0WG61EIUwXPY2FfFycmI+alY9q3vLyvCz0gAYlw AtnrU3EhOm2Wzp0D3bFfaCgsXgqRkfh7N1zL9nOTvN46XlJWOykkZUkvHMQJ9HVBzRKkPaiejFcP CF5fVOA5zFAIIkBYh6sX1GpDNOZmSnjhgTHlOdMWVNlb6nFIb7VSlo6v/Oghnj79LEW/g5oPoSzr u3XlHYjyfU8XJApyH6zoVDxZNigKqFqohrDahpYq4y5Ex7GF3JYqNB1X+2OceebNciK6bdvHua6y FTFfQLOAdvH+4kRBrKCRw3ITwhBZ88BXIAogAy+HmoTAh6UmrOaQGcgv3hYSAy0Ni5aRVhc7+zd9 sBs+/OPv8/zRQ5xW57EDErq8ss0qW8YwkKUSkcTv7iWo9SI9H+0USqfYuAWNBOKO3KazeyhbetMg 1xxDusbezdt5/jeHPjwPPPDog7x09EWW8gZZt8X1yPIMKAcBEHUgAlmGSXbCoG2548KWzlSnK0oB OYimI2zAWLWPvddex8Ennv3wPPCf17W372JhdZlMaLLIYL3SHhWgLqDS6XAX269zUFA6Sx1CCYRx eDnUbUhfpc74wBCf2L2Xn//s8Q/4uuTH6U1338LU9Ns0gwJTdSWEoOxKF+dpRyl34YQoZXdSOXry gGtGx5kc38itN97KQ4/+9/H8sr6O+cYktPKykKxqyJ3AdHZukeAcgXB0ScdgCE/NMXj/NpafnFrX 9L8BKxFAQoDYuTUAAAAASUVORK5CYII= "
     id="image10-3"
     x="0.010928688"
     y="0.036502577" />
  <rect
     style="fill:#e5ebf5;fill-opacity:1;stroke:none;stroke-width:2.1;stroke-miterlimit:4;stroke-dasharray:none;stroke-dashoffset:0;stroke-opacity:1"
     id="rect4138-5"
     width="31.150766"
     height="30.96059"
     x="0.46735001"
     y="0.6194911" />
  <rect
     style="fill:#e5ebf5;fill-opacity:1;stroke:#000000;stroke-width:0.4;stroke-miterlimit:4;stroke-dasharray:none;stroke-dashoffset:0;stroke-opacity:1"
     id="rect4140-6"
     width="30.085783"
     height="11.334467"
     x="0.88573796"
     y="3.2819498" />
  <rect
     y="18.077612"
     x="0.88573796"
     height="11.334467"
     width="30.085783"
     id="rect4142-2"
     style="fill:#e5ebf5;fill-opacity:1;stroke:#000000;stroke-width:0.4;stroke-miterlimit:4;stroke-dasharray:none;stroke-dashoffset:0;stroke-opacity:1" />
  <path
     style="fill:none;fill-rule:evenodd;stroke:#000000;stroke-width:0.5;stroke-linecap:butt;stroke-linejoin:miter;stroke-miterlimit:4;stroke-dasharray:none;stroke-opacity:1"
     d="M 0.99984166,5.3358464 H 1.9507197"
     id="path4146-9" />
  <path
     id="path4148-1"
     d="M 0.99984166,7.3358464 H 1.9507197"
     style="fill:none;fill-rule:evenodd;stroke:#000000;stroke-width:0.5;stroke-linecap:butt;stroke-linejoin:miter;stroke-miterlimit:4;stroke-dasharray:none;stroke-opacity:1" />
  <path
     style="fill:none;fill-rule:evenodd;stroke:#000000;stroke-width:0.5;stroke-linecap:butt;stroke-linejoin:miter;stroke-miterlimit:4;stroke-dasharray:none;stroke-opacity:1"
     d="M 0.99984166,9.3358464 H 1.9507197"
     id="path4150-2" />
  <path
     id="path4152-7"
     d="M 0.99984166,11.335847 H 1.9507197"
     style="fill:none;fill-rule:evenodd;stroke:#000000;stroke-width:0.5;stroke-linecap:butt;stroke-linejoin:miter;stroke-miterlimit:4;stroke-dasharray:none;stroke-opacity:1" />
  <path
     style="fill:none;fill-rule:evenodd;stroke:#000000;stroke-width:0.5;stroke-linecap:butt;stroke-linejoin:miter;stroke-miterlimit:4;stroke-dasharray:none;stroke-opacity:1"
     d="M 0.99984166,13.335847 H 1.9507197"
     id="path4154-0" />
  <path
     id="path4156-9"
     d="M 0.99984166,20.055439 H 1.9507197"
     style="fill:none;fill-rule:evenodd;stroke:#000000;stroke-width:0.5;stroke-linecap:butt;stroke-linejoin:miter;stroke-miterlimit:4;stroke-dasharray:none;stroke-opacity:1" />
  <path
     style="fill:none;fill-rule:evenodd;stroke:#000000;stroke-width:0.5;stroke-linecap:butt;stroke-linejoin:miter;stroke-miterlimit:4;stroke-dasharray:none;stroke-opacity:1"
     d="M 0.99984166,22.055439 H 1.9507197"
     id="path4158-3" />
  <path
     id="path4160-6"
     d="M 0.99984166,24.055439 H 1.9507197"
     style="fill:none;fill-rule:evenodd;stroke:#000000;stroke-width:0.5;stroke-linecap:butt;stroke-linejoin:miter;stroke-miterlimit:4;stroke-dasharray:none;stroke-opacity:1" />
  <path
     style="fill:none;fill-rule:evenodd;stroke:#000000;stroke-width:0.5;stroke-linecap:butt;stroke-linejoin:miter;stroke-miterlimit:4;stroke-dasharray:none;stroke-opacity:1"
     d="M 0.99984166,26.05544 H 1.9507197"
     id="path4162-0" />
  <path
     id="path4164-6"
     d="M 0.99984166,28.05544 H 1.9507197"
     style="fill:none;fill-rule:evenodd;stroke:#000000;stroke-width:0.5;stroke-linecap:butt;stroke-linejoin:miter;stroke-miterlimit:4;stroke-dasharray:none;stroke-opacity:1" />
  <path
     style="fill:none;fill-rule:evenodd;stroke:#000000;stroke-width:0.5;stroke-linecap:butt;stroke-linejoin:miter;stroke-miterlimit:4;stroke-dasharray:none;stroke-opacity:1"
     d="M 3.6432827,29.240921 V 28.290043"
     id="path4166-2" />
  <path
     id="path4168-6"
     d="M 5.6432827,29.240921 V 28.290043"
     style="fill:none;fill-rule:evenodd;stroke:#000000;stroke-width:0.5;stroke-linecap:butt;stroke-linejoin:miter;stroke-miterlimit:4;stroke-dasharray:none;stroke-opacity:1" />
  <path
     style="fill:none;fill-rule:evenodd;stroke:#000000;stroke-width:0.5;stroke-linecap:butt;stroke-linejoin:miter;stroke-miterlimit:4;stroke-dasharray:none;stroke-opacity:1"
     d="M 7.6432827,29.240921 V 28.290043"
     id="path4170-1" />
  <path
     id="path4172-8"
     d="M 9.6432827,29.240921 V 28.290043"
     style="fill:none;fill-rule:evenodd;stroke:#000000;stroke-width:0.5;stroke-linecap:butt;stroke-linejoin:miter;stroke-miterlimit:4;stroke-dasharray:none;stroke-opacity:1" />
  <path
     style="fill:none;fill-rule:evenodd;stroke:#000000;stroke-width:0.5;stroke-linecap:butt;stroke-linejoin:miter;stroke-miterlimit:4;stroke-dasharray:none;stroke-opacity:1"
     d="M 11.643283,29.240921 V 28.290043"
     id="path4174-7" />
  <path
     id="path4176-9"
     d="M 13.643283,29.240921 V 28.290043"
     style="fill:none;fill-rule:evenodd;stroke:#000000;stroke-width:0.5;stroke-linecap:butt;stroke-linejoin:miter;stroke-miterlimit:4;stroke-dasharray:none;stroke-opacity:1" />
  <path
     style="fill:none;fill-rule:evenodd;stroke:#000000;stroke-width:0.5;stroke-linecap:butt;stroke-linejoin:miter;stroke-miterlimit:4;stroke-dasharray:none;stroke-opacity:1"
     d="M 15.643282,29.240921 V 28.290043"
     id="path4178-2" />
  <path
     id="path4180-0"
     d="M 17.643282,29.240921 V 28.290043"
     style="fill:none;fill-rule:evenodd;stroke:#000000;stroke-width:0.5;stroke-linecap:butt;stroke-linejoin:miter;stroke-miterlimit:4;stroke-dasharray:none;stroke-opacity:1" />
  <path
     style="fill:none;fill-rule:evenodd;stroke:#000000;stroke-width:0.5;stroke-linecap:butt;stroke-linejoin:miter;stroke-miterlimit:4;stroke-dasharray:none;stroke-opacity:1"
     d="M 19.643282,29.240921 V 28.290043"
     id="path4182-2" />
  <path
     id="path4184-3"
     d="M 21.643282,29.240921 V 28.290043"
     style="fill:none;fill-rule:evenodd;stroke:#000000;stroke-width:0.5;stroke-linecap:butt;stroke-linejoin:miter;stroke-miterlimit:4;stroke-dasharray:none;stroke-opacity:1" />
  <path
     style="fill:none;fill-rule:evenodd;stroke:#000000;stroke-width:0.5;stroke-linecap:butt;stroke-linejoin:miter;stroke-miterlimit:4;stroke-dasharray:none;stroke-opacity:1"
     d="M 23.643282,29.240921 V 28.290043"
     id="path4186-7" />
  <path
     id="path4188-5"
     d="M 25.643282,29.240921 V 28.290043"
     style="fill:none;fill-rule:evenodd;stroke:#000000;stroke-width:0.5;stroke-linecap:butt;stroke-linejoin:miter;stroke-miterlimit:4;stroke-dasharray:none;stroke-opacity:1" />
  <path
     style="fill:none;fill-rule:evenodd;stroke:#000000;stroke-width:0.5;stroke-linecap:butt;stroke-linejoin:miter;stroke-miterlimit:4;stroke-dasharray:none;stroke-opacity:1"
     d="M 27.643282,29.240921 V 28.290043"
     id="path4190-9" />
  <path
     id="path4192-2"
     d="M 3.6432827,14.442183 V 13.491305"
     style="fill:none;fill-rule:evenodd;stroke:#000000;stroke-width:0.5;stroke-linecap:butt;stroke-linejoin:miter;stroke-miterlimit:4;stroke-dasharray:none;stroke-opacity:1" />
  <path
     style="fill:none;fill-rule:evenodd;stroke:#000000;stroke-width:0.5;stroke-linecap:butt;stroke-linejoin:miter;stroke-miterlimit:4;stroke-dasharray:none;stroke-opacity:1"
     d="M 5.6432827,14.442183 V 13.491305"
     id="path4194-2" />
  <path
     id="path4196-8"
     d="M 7.6432827,14.442183 V 13.491305"
     style="fill:none;fill-rule:evenodd;stroke:#000000;stroke-width:0.5;stroke-linecap:butt;stroke-linejoin:miter;stroke-miterlimit:4;stroke-dasharray:none;stroke-opacity:1" />
  <path
     style="fill:none;fill-rule:evenodd;stroke:#000000;stroke-width:0.5;stroke-linecap:butt;stroke-linejoin:miter;stroke-miterlimit:4;stroke-dasharray:none;stroke-opacity:1"
     d="M 9.6432827,14.442183 V 13.491305"
     id="path4198-9" />
  <path
     id="path4200-7"
     d="M 11.643283,14.442183 V 13.491305"
     style="fill:none;fill-rule:evenodd;stroke:#000000;stroke-width:0.5;stroke-linecap:butt;stroke-linejoin:miter;stroke-miterlimit:4;stroke-dasharray:none;stroke-opacity:1" />
  <path
     style="fill:none;fill-rule:evenodd;stroke:#000000;stroke-width:0.5;stroke-linecap:butt;stroke-linejoin:miter;stroke-miterlimit:4;stroke-dasharray:none;stroke-opacity:1"
     d="M 13.643283,14.442183 V 13.491305"
     id="path4202-3" />
  <path
     id="path4204-6"
     d="M 15.643282,14.442183 V 13.491305"
     style="fill:none;fill-rule:evenodd;stroke:#000000;stroke-width:0.5;stroke-linecap:butt;stroke-linejoin:miter;stroke-miterlimit:4;stroke-dasharray:none;stroke-opacity:1" />
  <path
     style="fill:none;fill-rule:evenodd;stroke:#000000;stroke-width:0.5;stroke-linecap:butt;stroke-linejoin:miter;stroke-miterlimit:4;stroke-dasharray:none;stroke-opacity:1"
     d="M 17.643282,14.442183 V 13.491305"
     id="path4206-1" />
  <path
     id="path4208-2"
     d="M 19.643282,14.442183 V 13.491305"
     style="fill:none;fill-rule:evenodd;stroke:#000000;stroke-width:0.5;stroke-linecap:butt;stroke-linejoin:miter;stroke-miterlimit:4;stroke-dasharray:none;stroke-opacity:1" />
  <path
     style="fill:none;fill-rule:evenodd;stroke:#000000;stroke-width:0.5;stroke-linecap:butt;stroke-linejoin:miter;stroke-miterlimit:4;stroke-dasharray:none;stroke-opacity:1"
     d="M 21.643282,14.442183 V 13.491305"
     id="path4210-9" />
  <path
     id="path4212-3"
     d="M 23.643282,14.442183 V 13.491305"
     style="fill:none;fill-rule:evenodd;stroke:#000000;stroke-width:0.5;stroke-linecap:butt;stroke-linejoin:miter;stroke-miterlimit:4;stroke-dasharray:none;stroke-opacity:1" />
  <path
     style="fill:none;fill-rule:evenodd;stroke:#000000;stroke-width:0.5;stroke-linecap:butt;stroke-linejoin:miter;stroke-miterlimit:4;stroke-dasharray:none;stroke-opacity:1"
     d="M 25.643282,14.442183 V 13.491305"
     id="path4214-1" />
  <path
     id="path4216-9"
     d="M 27.643282,14.442183 V 13.491305"
     style="fill:none;fill-rule:evenodd;stroke:#000000;stroke-width:0.5;stroke-linecap:butt;stroke-linejoin:miter;stroke-miterlimit:4;stroke-dasharray:none;stroke-opacity:1" />
  <path
     style="fill:none;fill-rule:evenodd;stroke:#000000;stroke-width:0.5;stroke-linecap:butt;stroke-linejoin:miter;stroke-miterlimit:4;stroke-dasharray:none;stroke-opacity:1"
     d="m 3.6623007,26.255164 h 0.387482 0.387483 0.387483 l 0.387483,-7.150603 0.387483,7.150603 h 0.387482 0.387483 0.387483 l 0.387483,-4.906531 0.387483,4.906531 h 0.387483 0.387482 0.387483 l 0.387483,-3.080845 0.387483,3.080845 h 0.387483 0.3874833 0.387482 0.387483 0.387483 0.387483 0.387483 0.387483 0.387482 0.387483 0.387483 0.387483 0.387483 0.387482 0.387482 0.387483 0.387483 0.387483 0.387483 0.387482 0.387483 l 0.387483,-6.504006 0.387483,6.504006 h 0.387483 0.387482 0.387483 0.387483 0.387483 0.387483 0.387483 l 0.387482,-4.069758 0.387483,4.069758 h 0.387483 0.387483 0.387483 0.387482 0.387483 0.387483 0.387483 l 0.387483,-1.977826 0.387482,1.977826 h 0.387483 0.387483 0.387483 0.387483 0.387483 0.387482 0.387483 0.387483"
     id="path6012-4" />
  <path
     id="path6014-7"
     d="M 28.4612,11.383431 H 28.073717 27.686234 27.298752 L 26.911269,4.2328276 26.523786,11.383431 H 26.136303 25.74882 25.361337 L 24.973855,6.4768998 24.586372,11.383431 H 24.198889 23.811406 23.423923 L 23.036441,8.3025857 22.648958,11.383431 H 22.261475 21.873992 21.48651 21.099027 20.711544 20.324061 19.936578 19.549095 19.161613 18.77413 18.386647 17.999164 17.611681 17.224199 16.836716 16.449233 16.06175 15.674267 15.286784 14.899303 14.51182 L 14.124337,4.8794247 13.736854,11.383431 H 13.349371 12.961889 12.574406 12.186923 11.79944 11.411957 11.024474 L 10.636992,7.3136726 10.249509,11.383431 H 9.8620257 9.4745427 9.0870597 8.6995777 8.3120947 7.9246117 7.5371287 L 7.1496457,9.4056043 6.7621637,11.383431 h -0.387483 -0.387483 -0.387483 -0.387483 -0.387483 -0.387482 -0.387483 -0.387483"
     style="fill:none;fill-rule:evenodd;stroke:#000000;stroke-width:0.5;stroke-linecap:butt;stroke-linejoin:miter;stroke-miterlimit:4;stroke-dasharray:none;stroke-opacity:1" />
  <path
     style="fill:#ff00ff;fill-rule:evenodd;stroke:#e10000;stroke-width:1;stroke-linecap:butt;stroke-linejoin:miter;stroke-miterlimit:4;stroke-dasharray:none;stroke-dashoffset:0;stroke-opacity:1"
     d="M 15.976061,8.4039656 V 23.849649"
     id="path939"
     sodipodi:nodetypes="cc" />
  <path
     style="fill:#ff00ff;fill-rule:evenodd;stroke:#e10000;stroke-width:1;stroke-linecap:butt;stroke-linejoin:miter;stroke-miterlimit:4;stroke-dasharray:1, 1;stroke-dashoffset:0;stroke-opacity:1"
     d="M 15.976061,0.65357777 V 7.4241524"
     id="path941"
     sodipodi:nodetypes="cc" />
  <path
     style="fill:#ff00ff;fill-rule:evenodd;stroke:#e10000;stroke-width:1;stroke-linecap:butt;stroke-linejoin:miter;stroke-miterlimit:4;stroke-dasharray:1, 1;stroke-dashoffset:0;stroke-opacity:1"
     d="m 15.976061,31.55263 0,-7.702981"
     id="path943"
     sodipodi:nodetypes="cc" />
</svg>
