<?xml version="1.0" encoding="UTF-8" standalone="no"?>
<svg
   xmlns:dc="http://purl.org/dc/elements/1.1/"
   xmlns:cc="http://creativecommons.org/ns#"
   xmlns:rdf="http://www.w3.org/1999/02/22-rdf-syntax-ns#"
   xmlns:svg="http://www.w3.org/2000/svg"
   xmlns="http://www.w3.org/2000/svg"
   xmlns:sodipodi="http://sodipodi.sourceforge.net/DTD/sodipodi-0.dtd"
   xmlns:inkscape="http://www.inkscape.org/namespaces/inkscape"
   width="14.368646mm"
   height="14.085982mm"
   viewBox="0 0 14.368646 14.085982"
   version="1.1"
   id="svg5721"
   inkscape:version="1.0.2 (e86c870879, 2021-01-15)"
   sodipodi:docname="pushpin-grey-pulled.svg">
  <defs
     id="defs5715" />
  <sodipodi:namedview
     id="base"
     pagecolor="#ffffff"
     bordercolor="#666666"
     borderopacity="1.0"
     inkscape:pageopacity="0.0"
     inkscape:pageshadow="2"
     inkscape:zoom="2.73294"
     inkscape:cx="58.956473"
     inkscape:cy="14.084821"
     inkscape:document-units="mm"
     inkscape:current-layer="layer1"
     inkscape:document-rotation="0"
     showgrid="false"
     fit-margin-top="0"
     fit-margin-left="0"
     fit-margin-right="0"
     fit-margin-bottom="0" />
  <metadata
     id="metadata5718">
    <rdf:RDF>
      <cc:Work
         rdf:about="">
        <dc:format>image/svg+xml</dc:format>
        <dc:type
           rdf:resource="http://purl.org/dc/dcmitype/StillImage" />
        <dc:title></dc:title>
      </cc:Work>
    </rdf:RDF>
  </metadata>
  <g
     inkscape:label="Layer 1"
     inkscape:groupmode="layer"
     id="layer1"
     transform="translate(311.10239,-101.70351)">
    <g
       inkscape:export-ydpi="47.800789"
       inkscape:export-xdpi="47.800789"
       id="g314"
       transform="matrix(0.26458333,0,0,0.26458333,-370.09997,104.33305)">
      <path
         id="path976"
         style="fill:#656565;fill-opacity:1;stroke-width:0.394691"
         inkscape:connector-curvature="0"
         d="M 254.61745,4.2887236 222.983,43.299944 262.96516,12.829834 Z"
         inkscape:export-xdpi="11.423403"
         inkscape:export-ydpi="11.423403" />
      <path
         id="ellipse980"
         style="fill:#656565;fill-opacity:1;fill-rule:evenodd;stroke:#000000;stroke-width:0.410885;stroke-opacity:1"
         transform="rotate(45)"
         d="m 205.74441,-158.35533 a 16.697201,8.924366 0 0 1 -16.6972,8.92436 16.697201,8.924366 0 0 1 -16.6972,-8.92436 16.697201,8.924366 0 0 1 16.6972,-8.92437 16.697201,8.924366 0 0 1 16.6972,8.92437 z" />
      <path
         id="path982"
         sodipodi:nodetypes="ccccscscc"
         style="fill:#656565;fill-opacity:1;stroke:#000000;stroke-width:0.394691;stroke-opacity:1"
         inkscape:connector-curvature="0"
         d="m 240.97576,14.104684 16.86197,-21.0764804 c 0,0 -1.97598,1.60714 -0.44789,5.6646 0.92211,2.29212996 1.71252,3.92563 4.66327,6.98168 0,0 2.91455,3.07263 6.55739,4.4150104 1.97353,0.72722 4.60761,1.28168 6.08889,-0.1995604 L 253.62212,26.751514 c 0,0 -4.2153,4.2153 -10.53863,-2.10769 -6.32334,-6.32334 -2.10773,-10.53864 -2.10773,-10.53864 z"
         inkscape:export-xdpi="11.423403"
         inkscape:export-ydpi="11.423403" />
      <path
         id="ellipse984"
         style="fill:#656565;fill-opacity:1;fill-rule:evenodd;stroke:#000000;stroke-width:0.33197;stroke-opacity:1"
         transform="rotate(45)"
         d="m 202.53622,-187.56711 a 13.490318,7.2103424 0 0 1 -13.49032,7.21034 13.490318,7.2103424 0 0 1 -13.49032,-7.21034 13.490318,7.2103424 0 0 1 13.49032,-7.21034 13.490318,7.2103424 0 0 1 13.49032,7.21034 z" />
    </g>
  </g>
</svg>
